<svg xmlns="http://www.w3.org/2000/svg" width="31.626" height="29.069" viewBox="0 0 31.626 29.069">
  <g id="np_job_3752704_000000" transform="translate(-5.878 -9.418)">
    <path id="Path_1162" data-name="Path 1162" d="M35.749,25.256v19.95c0,.025,0,.049,0,.073.007.1.039-.185.014-.087-.011.045-.021.091-.035.137a.234.234,0,0,0-.021.067s.087-.172.042-.1c-.025.039-.045.08-.067.123s-.084.115,0,.007.017-.021-.007,0-.07.063-.1.1c-.053.059.084-.063.087-.067-.017,0-.042.028-.056.039-.039.021-.084.042-.123.067-.07.045.1-.042.1-.042-.028,0-.059.021-.091.028s-.1.017-.14.031c.017-.007.227-.014.087-.017H8.731c-.249,0-.5,0-.749,0H7.968l-.073,0c-.087,0,.115.017.112.017-.021-.007-.049-.007-.07-.014-.045-.011-.091-.028-.137-.039-.084-.021.1.045.1.045a.671.671,0,0,0-.084-.042A1.193,1.193,0,0,0,7.7,45.45c.137.045.129.112.07.049a.538.538,0,0,1-.049-.049c-.025-.025-.129-.151-.039-.031s-.014-.031-.035-.067c-.011-.021-.021-.042-.031-.063-.045-.07.042.1.042.1-.007-.045-.031-.091-.042-.137-.007-.025-.007-.045-.014-.07-.021-.084.014.115.014.112a.454.454,0,0,0,0-.1V25.247c0-.025,0-.049,0-.073,0-.087-.017.115-.017.112.011-.035.014-.08.025-.115s.07-.189.011-.049.011-.011.028-.042.115-.165.021-.045.025-.021.053-.049.035-.028.053-.045c.053-.059-.084.063-.087.067a.766.766,0,0,0,.137-.084c.017-.011.045-.017.063-.031,0,0-.182.063-.1.045.053-.014.1-.031.157-.042.143-.035-.193,0-.042.007H35.412a.428.428,0,0,0,.073,0s-.2-.039-.112-.014c.053.014.109.028.161.039.14.031-.157-.091-.039-.017.039.025.08.049.119.07.123.07-.129-.126-.031-.025.031.031.063.067.1.1.1.1-.1-.154-.025-.031.025.045.053.1.08.14.045.07-.042-.1-.042-.1,0,.021.017.045.021.067.014.045.021.091.035.137.021.084-.014-.115-.014-.112s.014.085.014.1a.875.875,0,1,0,1.749,0,2.134,2.134,0,0,0-2.1-2.1H8.033a2.11,2.11,0,0,0-2.151,2.159V45.006c0,.1,0,.2,0,.294a2.131,2.131,0,0,0,2.1,2c.227,0,.451,0,.679,0h26.7a2.141,2.141,0,0,0,1.56-.651,2.183,2.183,0,0,0,.585-1.518V25.247a.884.884,0,0,0-.875-.875.9.9,0,0,0-.882.883Z" transform="translate(-0.002 -8.817)" fill="#fff"/>
    <path id="Path_1163" data-name="Path 1163" d="M45.466,41.441V43.03c0,.619-.025,1.246,0,1.864a.146.146,0,0,0,0,.035.545.545,0,0,1,.543-.543.791.791,0,0,0-.129,0H41.822a3.091,3.091,0,0,0-.441,0,.544.544,0,0,1,.543.543.146.146,0,0,0,0-.035c0-.084,0-.168,0-.252v-3.2c.031,0-.087.3-.073.273a.571.571,0,0,1-.2.2c.007,0-.259.109-.273.073a.21.21,0,0,0,.042,0c.2.011.406,0,.609,0H44.3c.553,0,1.113.025,1.665,0a.209.209,0,0,0,.042,0s-.137-.017-.14-.021a.531.531,0,0,1-.4-.516.875.875,0,1,0,1.749,0,1.232,1.232,0,0,0-1.206-1.206H41.644a1.464,1.464,0,0,0-1.1.339,1.486,1.486,0,0,0-.367,1.187v1.113c0,.675-.011,1.346,0,2.022a1.238,1.238,0,0,0,1.243,1.243c.213,0,.427,0,.641,0H44.5c.5,0,1.008.021,1.511,0a1.233,1.233,0,0,0,1.206-1.206c0-.053,0-.1,0-.154V41.444a.876.876,0,0,0-1.752,0Z" transform="translate(-22.006 -19.776)" fill="#fff"/>
    <path id="Path_1164" data-name="Path 1164" d="M35.747,25.146v1.369c0,.479.021.963-.007,1.441,0,.056-.007.112-.014.168,0,.031-.007.063-.011.1-.007.1.017-.126.017-.112-.028.115-.039.235-.067.353a5.477,5.477,0,0,1-.2.651c-.053.137.1-.2.007-.017-.025.049-.045.1-.07.147-.053.1-.109.207-.168.3s-.1.168-.165.252c-.035.049-.073.1-.109.151-.007.007.129-.154.067-.087-.025.028-.049.059-.073.087a4.365,4.365,0,0,1-.451.459c-.042.035-.08.07-.123.1-.154.129.133-.1.014-.011-.1.067-.189.133-.283.2-.193.123-.4.2-.591.315-.011.007.189-.077.1-.042-.028.011-.059.025-.087.035-.053.021-.1.039-.154.056-.112.039-.224.07-.339.1s-.2.045-.3.067c-.031.007-.238.035-.073.014s-.059,0-.1.007c-.126.011-.252.014-.378.014H26.911c-.843,0-1.693-.021-2.536,0h-.042l.875.875v-.879a4.4,4.4,0,0,0-.042-1.094A1.223,1.223,0,0,0,24,29.28H19.667a1.686,1.686,0,0,0-.9.165,1.262,1.262,0,0,0-.6,1.113V32.14l.875-.875H11.179c-.165,0-.326-.014-.487-.028-.143-.014.08.011.091.014-.045-.011-.1-.014-.143-.025-.1-.017-.185-.035-.28-.059a3.942,3.942,0,0,1-.493-.154l-.129-.053c.252.084.1.042.039.014-.084-.039-.168-.08-.249-.126a4.443,4.443,0,0,1-.431-.266c-.067-.045-.245-.221-.045-.028-.067-.063-.143-.115-.21-.178a4.345,4.345,0,0,1-.357-.361c-.049-.056-.1-.123-.147-.175.175.178.067.087.025.031s-.07-.1-.1-.151a4.431,4.431,0,0,1-.249-.417c-.039-.077-.073-.154-.112-.231-.077-.157.077.2.014.039-.017-.042-.035-.087-.049-.129a4.051,4.051,0,0,1-.147-.5c-.017-.077-.035-.154-.049-.235-.007-.045-.014-.1-.025-.143.059.283.011.067,0-.007-.014-.168-.017-.336-.017-.5V26.288c0-.375,0-.749,0-1.12v-.021c0,.011,0-.1,0-.1.031.143-.031.185,0,.07a.573.573,0,0,0,.031-.112c-.017.042-.035.084-.053.123a.612.612,0,0,1,.042-.08.833.833,0,0,0,.073-.115c-.025.073-.133.151-.021.039.077-.077.129-.053-.039.021.039-.017.077-.053.115-.073a.612.612,0,0,0,.08-.042c-.165.115-.137.053-.035.028s.168.011-.049,0c.031,0,.067,0,.1,0h0c.172,0,.343,0,.511,0H33.587c.637,0,1.276-.011,1.915,0h.007c-.011,0,.109,0,.1,0-.045-.007-.091-.014-.14-.017.031.007.059.011.091.021a.56.56,0,0,0,.087.028c-.042-.017-.084-.035-.123-.053a.612.612,0,0,1,.08.042.832.832,0,0,0,.115.073c-.017-.007-.161-.147-.073-.053a.631.631,0,0,0,.1.1c-.028-.035-.053-.07-.08-.1a.719.719,0,0,1,.049.077c.017.025.028.053.045.08.084.143-.056-.2-.021-.039a.966.966,0,0,0,.031.137c-.007-.045-.014-.091-.017-.14,0,.025.006.057.006.088a.875.875,0,1,0,1.749,0,2.024,2.024,0,0,0-1.99-1.99H7.957a2.413,2.413,0,0,0-.6.067A2.027,2.027,0,0,0,5.879,25.19c0,.819,0,1.64,0,2.46A5.349,5.349,0,0,0,7.6,31.611a5.406,5.406,0,0,0,3.65,1.4h7.79a.889.889,0,0,0,.875-.875V30.771a1.963,1.963,0,0,0,0-.287.539.539,0,0,1-.269.465c.025-.014-.277.1-.277.073H19.4a1.83,1.83,0,0,0,.2,0h4.028a2.271,2.271,0,0,0,.378,0,.535.535,0,0,1-.469-.269.645.645,0,0,1-.073-.266.451.451,0,0,0,0,.137v1.509a.889.889,0,0,0,.875.875h6.12a17.929,17.929,0,0,0,2.631-.08,5.328,5.328,0,0,0,4.266-3.981,8.216,8.216,0,0,0,.147-1.9v-1.9a.874.874,0,1,0-1.748,0Z" transform="translate(0 -8.816)" fill="#fff"/>
    <path id="Path_1165" data-name="Path 1165" d="M44.326,14.34H34.035l.875.875V11.24c0,.014,0-.067,0-.073,0-.112-.063.224,0,.07a.516.516,0,0,0,.028-.087c0,.147-.08.157-.031.084.017-.028.1-.14.007-.025s.014-.007.035-.031.109-.1,0,0,0,.014.025-.007c.077-.049.063.028-.084.031a.417.417,0,0,0,.087-.028c.154-.059-.182.007-.07,0l.073,0h8.086c.1,0,.207,0,.311,0h.052c.165,0-.161-.056-.07-.007a.305.305,0,0,0,.112.031c-.021,0-.193-.1-.084-.031a.719.719,0,0,0,.077.049c-.109-.087-.137-.112-.087-.067.017.014.035.031.049.045s.042.053.059.067c-.126-.091-.1-.137-.045-.045s-.017.077-.021-.063a.37.37,0,0,0,.028.087c.056.143-.028-.1-.007-.1a.43.43,0,0,1,0,.1v.011c.025,1.276,0,2.561,0,3.837v.123a.875.875,0,1,0,1.749,0V11.374a1.947,1.947,0,0,0-.535-1.42A1.9,1.9,0,0,0,43.3,9.419H35.228c-.087,0-.175,0-.259,0a1.85,1.85,0,0,0-1.819,1.819c-.028,1.276,0,2.557,0,3.837v.137a.889.889,0,0,0,.875.875h10.29a.884.884,0,0,0,.875-.875.873.873,0,0,0-.863-.873Z" transform="translate(-17.493 0)" fill="#fff"/>
  </g>
</svg>
